{
	"name" : {
		"message" : "Онлайн Радио в твоём браузере"
	},
	"title" : {
		"message" : "Онлайн Радио"
	},
	"description" : {
		"message" : "Онлайн Радио в твоём браузере. Всё что нужно - это доступ к Интернет."
	},
	"reload" : {
		"message" : "Перезагрузить список радиостанций"
	},
	"volumetitle" : {
		"message": "Громкость"
	},
	"reviews" : {
		"message" : "Оставить отзыв"
	},
	"newstation" : {
		"message" : "новая станция"
	},
	"opensettings" : {
		"message" : "Открыть «Онлайн Радио»"
	},
	"fullscreen" : {
		"message" : "Двойной клик\nОткрыть на всё окно"
	},
	"clipboardItem" : {
		"message" : "Скопировать название трека"
	},
	"searchYandex" : {
		"message" : "Поиск трека в Яндекс"
	},
	"searchGoogle" : {
		"message" : "Поиск трека в Google"
	},
	"clipboard" : {
		"message" : "Кликните, чтобы\nскопировать название трека"
	},
	"clear" : {
		"message" : "Очистить Поиск"
	},
	"search" : {
		"message" : "Поиск"
	},
	"menufullscreen_enabled": {
		"message": "Визуализацию в полноэкранный режим"
	},
	"menufullscreen_disabled": {
		"message": "Выйти из полноэкранного режима"
	},
	"menuReset": {
		"message": "Сбросить все настройки расширения"
	},
	"addFavorite": {
		"message" : "Добавить в избранное"
	},
	"removeFavorite": {
		"message" : "Удалить из избранного"
	},
	"globPlayStop": {
		"message" : "Play/Stop выбранной станции"
	},
	"volumeup": {
		"message": "Увеличить громкость"
	},
	"volumedown": {
		"message": "Уменьшить громкость"
	},
	"initialized": {
		"message": "«Онлайн Радио» готово к работе."
	},
	"initializedno": {
		"message": "«Онлайн Радио». ERROR INITIALIZED."
	},
	"gotoradioext": {
		"message" : "Перейти на сайт поддержки расширения"
	},
	"show_info": {
		"message" : "Отображать уведомления на рабочем столе при смене информации проигрываемого трека."
	},
	"show_panel": {
		"message" : "Всегда отображать панель настроек.$r$(Потребуется перезапуск настроек)",
		"placeholders": {
			"r": {
				"content": "$1",
				"example": "<br>"
			}
		}
	},
	"online_output_html": {
		"message" : "Онлайн: $a$. Рекорд: $b$ зафиксирован: $c$",
		"placeholders": {
			"a": {
				"content": "$1",
				"example": "0"
			},
			"b": {
				"content": "$2",
				"example": "0"
			},
			"c": {
				"content": "$3",
				"example": "0"
			}
		}
	},
	"shared_description": {
		"message" : "Рассказать друзьям:"
	},
	"support": {
		"message" : "ПОДДЕРЖКА"
	},
	"lang_settings": {
		"message" : "Настройки"
	},
	"lang_settings_skin": {
		"message" : "Настройки скина"
	},
	"show_count": {
		"message" : "Выводить статистику"
	}
}